<?xml version="1.0" encoding="UTF-8"?>
<svg xmlns="http://www.w3.org/2000/svg" xmlns:xlink="http://www.w3.org/1999/xlink" width="218pt" height="343.125pt" viewBox="0 0 218 343.125" version="1.1">
<defs>
<g>
<symbol overflow="visible" id="glyph0-0">
<path style="stroke:none;" d="M 32 0 L 32 -192 L 224 -192 L 224 0 Z M 48 -16 L 208 -16 L 208 -176 L 48 -176 Z M 48 -16 "/>
</symbol>
<symbol overflow="visible" id="glyph0-1">
<path style="stroke:none;" d="M 99 -148.875 C 99 -156.789062 96.644531 -163.019531 91.9375 -167.5625 C 87.226562 -172.101562 81.207031 -174.375 73.875 -174.375 C 66.207031 -174.375 59.957031 -171.8125 55.125 -166.6875 C 50.289062 -161.5625 47.875 -155.289062 47.875 -147.875 C 47.875 -141.625 49.519531 -136.082031 52.8125 -131.25 C 56.101562 -126.414062 63.207031 -120.707031 74.125 -114.125 C 82.289062 -117.039062 88.476562 -121.3125 92.6875 -126.9375 C 96.894531 -132.5625 99 -139.875 99 -148.875 Z M 123.25 -39.375 L 63.5 -97.625 C 60.914062 -96.375 58.332031 -94.726562 55.75 -92.6875 C 53.164062 -90.644531 50.582031 -87.875 48 -84.375 C 45.664062 -81.125 43.75 -77.207031 42.25 -72.625 C 40.75 -68.039062 40 -62.875 40 -57.125 C 40 -44.957031 43.5625 -35.144531 50.6875 -27.6875 C 57.8125 -20.226562 67.914062 -16.5 81 -16.5 C 88.75 -16.5 96.4375 -18.394531 104.0625 -22.1875 C 111.6875 -25.976562 118.082031 -31.707031 123.25 -39.375 Z M 160.875 -113.625 L 160.875 -101.625 C 160.875 -93.625 159.832031 -84.625 157.75 -74.625 C 155.664062 -64.625 152.125 -55.082031 147.125 -46 L 194.375 0 L 163.625 0 L 135 -28 C 125.414062 -16.164062 115.625 -7.894531 105.625 -3.1875 C 95.625 1.519531 85.332031 3.875 74.75 3.875 C 57.414062 3.875 43.019531 -1.1875 31.5625 -11.3125 C 20.101562 -21.4375 14.375 -34.707031 14.375 -51.125 C 14.375 -58.789062 15.457031 -65.414062 17.625 -71 C 19.789062 -76.582031 22.332031 -81.414062 25.25 -85.5 C 28.164062 -89.414062 31.789062 -93.101562 36.125 -96.5625 C 40.457031 -100.019531 44.832031 -103.039062 49.25 -105.625 C 40.082031 -111.625 33.476562 -117.664062 29.4375 -123.75 C 25.394531 -129.832031 23.375 -137.5 23.375 -146.75 C 23.375 -152.332031 24.476562 -157.644531 26.6875 -162.6875 C 28.894531 -167.726562 32.207031 -172.332031 36.625 -176.5 C 40.789062 -180.5 46.226562 -183.75 52.9375 -186.25 C 59.644531 -188.75 67.039062 -190 75.125 -190 C 89.539062 -190 101.207031 -186.351562 110.125 -179.0625 C 119.039062 -171.769531 123.5 -162.539062 123.5 -151.375 C 123.5 -147.707031 123 -143.5625 122 -138.9375 C 121 -134.3125 119.289062 -130.164062 116.875 -126.5 C 114.207031 -122.414062 110.414062 -118.5 105.5 -114.75 C 100.582031 -111 94.207031 -107.789062 86.375 -105.125 L 132.75 -59.875 C 133.914062 -63.207031 134.789062 -66.875 135.375 -70.875 C 135.957031 -74.875 136.289062 -79.039062 136.375 -83.375 C 136.539062 -88.039062 136.601562 -93.25 136.5625 -99 C 136.519531 -104.75 136.5 -109.625 136.5 -113.625 Z M 160.875 -113.625 "/>
</symbol>
</g>
</defs>
<g id="surface1">
<rect x="0" y="0" width="218" height="343.125" style="fill:rgb(100%,100%,100%);fill-opacity:1;stroke:none;"/>
<g style="fill:rgb(0%,0%,0%);fill-opacity:1;">
  <use xlink:href="#glyph0-1" x="16" y="273.375"/>
</g>
</g>
</svg>
