<?xml version="1.0" encoding="UTF-8"?>
<svg xmlns="http://www.w3.org/2000/svg" xmlns:xlink="http://www.w3.org/1999/xlink" width="319.484375pt" height="255.484375pt" viewBox="0 0 319.484375 255.484375" version="1.1">
<defs>
<g>
<symbol overflow="visible" id="glyph0-0">
<path style="stroke:none;" d="M 5.078125 -45.71875 C 5.078125 -15.03125 9.453125 0 58.40625 0 L 154.921875 0 C 200.234375 0 208.25 -6.8125 208.25 -45.71875 L 208.25 -157.453125 C 208.25 -188.140625 203.890625 -203.171875 154.921875 -203.171875 L 58.40625 -203.171875 C 13.109375 -203.171875 5.078125 -196.375 5.078125 -157.453125 Z M 189.046875 -135.3125 L 63.59375 -26.609375 L 32.3125 -70.5 L 149.125 -178.796875 Z M 173.921875 -58 L 120.984375 -17.265625 L 31.078125 -140.796875 L 81.265625 -174.9375 Z M 173.921875 -58 "/>
</symbol>
<symbol overflow="visible" id="glyph0-1">
<path style="stroke:none;" d="M 24.375 -58.515625 C 24.375 -17.0625 33.9375 3.25 141.109375 3.25 L 166.703125 3.25 C 227.25 3.25 263.109375 -7.625 263.109375 -27.9375 C 263.109375 -36.578125 258.546875 -42.875 238.625 -54.953125 C 217.09375 -68.0625 208.046875 -71.421875 201.546875 -65.421875 C 197.078125 -61.25 188.546875 -59.328125 137.859375 -59.328125 C 87.671875 -59.328125 85.328125 -66.546875 85.328125 -86.140625 L 85.328125 -117.4375 C 85.328125 -141.8125 95.59375 -146.078125 140.1875 -146.078125 C 183.5625 -146.078125 198.703125 -145.0625 200.9375 -141.8125 C 203.171875 -138.5625 206.328125 -137.546875 213.734375 -137.546875 C 238.421875 -137.546875 263.109375 -156.34375 263.109375 -175.03125 C 263.109375 -198.609375 228.984375 -208.65625 149.328125 -208.65625 C 56.078125 -208.65625 24.375 -198.09375 24.375 -140.703125 Z M 24.375 -58.515625 "/>
</symbol>
</g>
</defs>
<g id="surface1">
<rect x="0" y="0" width="319.484375" height="255.484375" style="fill:rgb(100%,100%,100%);fill-opacity:1;stroke:none;"/>
<g style="fill:rgb(0%,0%,0%);fill-opacity:1;">
  <use xlink:href="#glyph0-1" x="16" y="219.171875"/>
</g>
</g>
</svg>
