<?xml version="1.0" encoding="UTF-8"?>
<svg xmlns="http://www.w3.org/2000/svg" xmlns:xlink="http://www.w3.org/1999/xlink" width="160pt" height="334pt" viewBox="0 0 160 334" version="1.1">
<defs>
<g>
<symbol overflow="visible" id="glyph0-0">
<path style="stroke:none;" d="M 12.75 45.25 L 12.75 -180.5 L 140.75 -180.5 L 140.75 45.25 Z M 27.125 31 L 126.5 31 L 126.5 -166.125 L 27.125 -166.125 Z M 27.125 31 "/>
</symbol>
<symbol overflow="visible" id="glyph0-1">
<path style="stroke:none;" d="M 10.75 -27.375 L 10.75 -158.25 C 10.75 -168.582031 12.394531 -175.894531 15.6875 -180.1875 C 18.976562 -184.476562 24.414062 -186.625 32 -186.625 C 39.582031 -186.625 45.019531 -184.457031 48.3125 -180.125 C 51.601562 -175.789062 53.25 -168.5 53.25 -158.25 L 53.25 -108.75 C 53.25 -104.832031 53.6875 -102.25 54.5625 -101 C 55.4375 -99.75 56.957031 -99.125 59.125 -99.125 C 62.539062 -99.125 65.875 -103.707031 69.125 -112.875 L 92.125 -177.875 C 93.125 -180.789062 94.164062 -182.8125 95.25 -183.9375 C 96.332031 -185.0625 97.707031 -185.625 99.375 -185.625 C 101.625 -185.625 103.457031 -184.976562 104.875 -183.6875 C 106.289062 -182.394531 107 -180.625 107 -178.375 C 107 -177.875 106.875 -177.1875 106.625 -176.3125 C 106.375 -175.4375 106 -174.332031 105.5 -173 L 93.5 -139.75 L 93.375 -139.5 C 91.875 -135.414062 91.125 -132.625 91.125 -131.125 C 91.125 -130.457031 91.625 -128.664062 92.625 -125.75 C 93.039062 -124.5 93.414062 -123.414062 93.75 -122.5 L 124.875 -34 C 124.957031 -34 125 -33.957031 125 -33.875 C 127.5 -26.957031 128.75 -21.914062 128.75 -18.75 C 128.75 -12.832031 126.664062 -8.019531 122.5 -4.3125 C 118.332031 -0.601562 113 1.25 106.5 1.25 C 101.75 1.25 97.789062 -0.375 94.625 -3.625 C 91.457031 -6.875 88.5 -12.5 85.75 -20.5 L 69.125 -70.125 C 69.125 -70.207031 69.082031 -70.289062 69 -70.375 C 66 -79.289062 62.707031 -83.75 59.125 -83.75 C 56.957031 -83.75 55.4375 -83.1875 54.5625 -82.0625 C 53.6875 -80.9375 53.25 -78.332031 53.25 -74.25 L 53.25 -27.375 C 53.25 -17.039062 51.601562 -9.6875 48.3125 -5.3125 C 45.019531 -0.9375 39.582031 1.25 32 1.25 C 24.5 1.25 19.082031 -0.9375 15.75 -5.3125 C 12.414062 -9.6875 10.75 -17.039062 10.75 -27.375 Z M 10.75 -27.375 "/>
</symbol>
</g>
</defs>
<g id="surface1">
<rect x="0" y="0" width="160" height="334" style="fill:rgb(100%,100%,100%);fill-opacity:1;stroke:none;"/>
<g style="fill:rgb(0%,0%,0%);fill-opacity:1;">
  <use xlink:href="#glyph0-1" x="16" y="257.625"/>
</g>
</g>
</svg>
