<?xml version="1.0" encoding="UTF-8"?>
<svg xmlns="http://www.w3.org/2000/svg" xmlns:xlink="http://www.w3.org/1999/xlink" width="202.5pt" height="338.875pt" viewBox="0 0 202.5 338.875" version="1.1">
<defs>
<g>
<symbol overflow="visible" id="glyph0-0">
<path style="stroke:none;" d="M 12.75 45.25 L 12.75 -180.5 L 140.75 -180.5 L 140.75 45.25 Z M 27.125 31 L 126.5 31 L 126.5 -166.125 L 27.125 -166.125 Z M 27.125 31 "/>
</symbol>
<symbol overflow="visible" id="glyph0-1">
<path style="stroke:none;" d="M 19.5 -184.125 L 49.875 -184.125 L 49.875 -100.875 L 131.375 -184.125 L 170.5 -184.125 L 96.25 -110.125 L 174.625 0 L 137.25 0 L 74.5 -88.875 L 49.875 -64.5 L 49.875 0 L 19.5 0 Z M 19.5 -184.125 "/>
</symbol>
</g>
</defs>
<g id="surface1">
<rect x="0" y="0" width="202.5" height="338.875" style="fill:rgb(100%,100%,100%);fill-opacity:1;stroke:none;"/>
<g style="fill:rgb(0%,0%,0%);fill-opacity:1;">
  <use xlink:href="#glyph0-1" x="16" y="262.5"/>
</g>
</g>
</svg>
