<svg xmlns="http://www.w3.org/2000/svg" viewBox="-1 -17 20 18">
  <style>path { stroke:none;stroke-width:0.21;fill:grey ; } &#xA;g.present &gt; path.first { fill:pink ; }&#xA;g.present &gt; path.line { stroke:#c88;stroke-width:0.15; }&#xA;g.present &gt; path { stroke:none;stroke-width:0;fill:red; }&#xA;</style>
  <g class="" id="glyf1" transform="translate(0 0)">
    <path d="M 2 -0 L 6 -0 L 10 -12 L 14 -0 L 18 -0 L 12 -16 L 8 -16 Z M 6 -4 L 14 -4 L 14 -6 L 6 -6 Z " class=""></path>
  </g>
</svg>
