<svg xmlns="http://www.w3.org/2000/svg" viewBox="-1 -17 20 18">
  <style>path { stroke:none;stroke-width:0.21;fill:grey ; } &#xA;g.present &gt; path.first { fill:pink ; }&#xA;g.present &gt; path.line { stroke:#c88; }&#xA;g.present &gt; path.tick { stroke:pink; }&#xA;g.present &gt; path { stroke:none;stroke-width:0.15;fill:red; }&#xA;</style>
  <g class="" id="glyf2" transform="translate(0 0)">
    <path d="M 2 -0 L 8 -0 C 18 -0 16 -8 12 -10 L 12 -8 C 16 -10 14 -16 10 -16 L 2 -16 Z M 6 -2 L 6 -8 L 8 -8 C 14 -8 14 -2 8 -2 Z M 6 -10 L 6 -14 L 8 -14 C 10 -14 12 -14 12 -12 C 12 -10 10 -10 8 -10 Z " class=""></path>
  </g>
  <g class="present" id="glyf2-present" transform="translate(0 0)">
    <path d="M 8 -0 m -0.21 -0.21 v 0.42 h 0.42 v -0.42 Z m -0.21 0.21 " class=""></path>
    <path d="M 18 -0 m -0.3 0 l 0.3 0.3 0.3 -0.3 -0.3 -0.3 Z m 0 0.3 " class=""></path>
    <path d="M 18 -0 L 8 -0" class="line"></path>
    <path d="M 16 -8 m -0.3 0 l 0.3 0.3 0.3 -0.3 -0.3 -0.3 Z m 0 0.3 " class=""></path>
    <path d="M 16 -8 L 12 -10" class="line"></path>
    <path d="M 12 -10 m -0.21 -0.21 v 0.42 h 0.42 v -0.42 Z m -0.21 0.21 " class=""></path>
    <path d="M 12 -8 m -0.21 -0.21 v 0.42 h 0.42 v -0.42 Z m -0.21 0.21 " class=""></path>
    <path d="M 16 -10 m -0.3 0 l 0.3 0.3 0.3 -0.3 -0.3 -0.3 Z m 0 0.3 " class=""></path>
    <path d="M 16 -10 L 12 -8" class="line"></path>
    <path d="M 14 -16 m -0.3 0 l 0.3 0.3 0.3 -0.3 -0.3 -0.3 Z m 0 0.3 " class=""></path>
    <path d="M 14 -16 L 10 -16" class="line"></path>
    <path d="M 10 -16 m -0.21 -0.21 v 0.42 h 0.42 v -0.42 Z m -0.21 0.21 " class=""></path>
    <path d="M 2 -16 m -0.21 -0.21 v 0.42 h 0.42 v -0.42 Z m -0.21 0.21 " class=""></path>
    <path d="M 2 -0 m -0.21 -0.21 v 0.42 h 0.42 v -0.42 Z m -0.21 0.21 " class="first"></path>
    <path d="M 2 -0 l 0.6 -0" class="tick"></path>
    <path d="M 6 -8 m -0.21 -0.21 v 0.42 h 0.42 v -0.42 Z m -0.21 0.21 " class=""></path>
    <path d="M 8 -8 m -0.21 -0.21 v 0.42 h 0.42 v -0.42 Z m -0.21 0.21 " class=""></path>
    <path d="M 14 -8 m -0.3 0 l 0.3 0.3 0.3 -0.3 -0.3 -0.3 Z m 0 0.3 " class=""></path>
    <path d="M 14 -8 L 8 -8" class="line"></path>
    <path d="M 14 -2 m -0.3 0 l 0.3 0.3 0.3 -0.3 -0.3 -0.3 Z m 0 0.3 " class=""></path>
    <path d="M 14 -2 L 8 -2" class="line"></path>
    <path d="M 8 -2 m -0.21 -0.21 v 0.42 h 0.42 v -0.42 Z m -0.21 0.21 " class=""></path>
    <path d="M 6 -2 m -0.21 -0.21 v 0.42 h 0.42 v -0.42 Z m -0.21 0.21 " class="first"></path>
    <path d="M 6 -2 l 0 -0.6" class="tick"></path>
    <path d="M 6 -14 m -0.21 -0.21 v 0.42 h 0.42 v -0.42 Z m -0.21 0.21 " class=""></path>
    <path d="M 8 -14 m -0.21 -0.21 v 0.42 h 0.42 v -0.42 Z m -0.21 0.21 " class=""></path>
    <path d="M 10 -14 m -0.3 0 l 0.3 0.3 0.3 -0.3 -0.3 -0.3 Z m 0 0.3 " class=""></path>
    <path d="M 10 -14 L 8 -14" class="line"></path>
    <path d="M 12 -14 m -0.3 0 l 0.3 0.3 0.3 -0.3 -0.3 -0.3 Z m 0 0.3 " class=""></path>
    <path d="M 12 -14 L 12 -12" class="line"></path>
    <path d="M 12 -12 m -0.21 -0.21 v 0.42 h 0.42 v -0.42 Z m -0.21 0.21 " class=""></path>
    <path d="M 12 -10 m -0.3 0 l 0.3 0.3 0.3 -0.3 -0.3 -0.3 Z m 0 0.3 " class=""></path>
    <path d="M 12 -10 L 12 -12" class="line"></path>
    <path d="M 10 -10 m -0.3 0 l 0.3 0.3 0.3 -0.3 -0.3 -0.3 Z m 0 0.3 " class=""></path>
    <path d="M 10 -10 L 8 -10" class="line"></path>
    <path d="M 8 -10 m -0.21 -0.21 v 0.42 h 0.42 v -0.42 Z m -0.21 0.21 " class=""></path>
    <path d="M 6 -10 m -0.21 -0.21 v 0.42 h 0.42 v -0.42 Z m -0.21 0.21 " class="first"></path>
    <path d="M 6 -10 l 0 -0.6" class="tick"></path>
  </g>
</svg>