<svg xmlns="http://www.w3.org/2000/svg" viewBox="-1 -17 16 18">
  <style>path { stroke:none;stroke-width:0.21;fill:grey ; } &#xA;g.present &gt; path.first { fill:pink ; }&#xA;g.present &gt; path.line { stroke:#c88;stroke-width:0.15; }&#xA;g.present &gt; path { stroke:none;stroke-width:0;fill:red; }&#xA;</style>
  <style>
  g.grid > path { stroke:#9bc;stroke-width:0.21; }
  </style>
  <g class="grid">
    <path d="M -1 0 h 16
    M -1 -2 h 16
    M -1 -4 h 16
    M -1 -6 h 16
    M -1 -8 h 16
    M -1 -10 h 16
    M -1 -12 h 16
    M -1 -14 h 16
    M -1 -16 h 16"></path>
    <path d="M 0 1 v -18
    M 2 1 v -18
    M 4 1 v -18
    M 6 1 v -18
    M 8 1 v -18
    M 10 1 v -18
    M 12 1 v -18
    M 14 1 v -18"></path>
  </g>
  <g class="" id="glyf5" transform="translate(0 0)">
    <path d="M 2 -0 L 14 -0 L 14 -2 L 6 -2 L 6 -8 L 12 -8 L 12 -10 L 6 -10 L 6 -14 L 14 -14 L 14 -16 L 2 -16 Z " class=""></path>
  </g>
</svg>
