<svg xmlns="http://www.w3.org/2000/svg" viewBox="-1 -17 18 18">
  <style>path { stroke:none;stroke-width:0.21;fill:grey ; } &#xA;g.present &gt; path.first { fill:pink ; }&#xA;g.present &gt; path.line { stroke:#c88;stroke-width:0.15; }&#xA;g.present &gt; path { stroke:none;stroke-width:0;fill:red; }&#xA;</style>
  <style>
  g.grid > path { stroke:#9bc;stroke-width:0.21; }
  </style>
  <g class="grid">
    <path d="M -1 0 h 20
    M -1 -2 h 20
    M -1 -4 h 20
    M -1 -6 h 20
    M -1 -8 h 20
    M -1 -10 h 20
    M -1 -12 h 20
    M -1 -14 h 20
    M -1 -16 h 20"></path>
    <path d="M 0 1 v -18
    M 2 1 v -18
    M 4 1 v -18
    M 6 1 v -18
    M 8 1 v -18
    M 10 1 v -18
    M 12 1 v -18
    M 14 1 v -18
    M 16 1 v -18
    M 18 1 v -18"></path>
  </g>
  <g class="" id="glyf19" transform="translate(0 0)">
    <path d="M 4 -0 L 8 -0 C 14 -0 16 -2 16 -4 C 16 -8 8 -10 8 -12 C 8 -14 10 -14 10 -14 C 12 -14 14 -12 14 -12 L 16 -16 L 10 -16 C 6 -16 4 -14 4 -12 C 4 -8 12 -6 12 -4 C 12 -2 6 -2 2 -4 Z " class=""></path>
  </g>
  <g class="present" id="glyf19-present" transform="translate(0 0)">
    <path d="M 4 -0 m -0.21 -0.21 v 0.42 h 0.42 v -0.42 Z m -0.21 0.21 " class="first"></path>
    <path d="M 8 -0 m -0.21 -0.21 v 0.42 h 0.42 v -0.42 Z m -0.21 0.21 " class=""></path>
    <path d="M 14 -0 m -0.3 0 l 0.3 0.3 0.3 -0.3 -0.3 -0.3 Z m 0 0.3 " class=""></path>
    <path d="M 14 -0 L 8 -0" class="line"></path>
    <path d="M 16 -2 m -0.3 0 l 0.3 0.3 0.3 -0.3 -0.3 -0.3 Z m 0 0.3 " class=""></path>
    <path d="M 16 -2 L 16 -4" class="line"></path>
    <path d="M 16 -4 m -0.21 -0.21 v 0.42 h 0.42 v -0.42 Z m -0.21 0.21 " class=""></path>
    <path d="M 16 -8 m -0.3 0 l 0.3 0.3 0.3 -0.3 -0.3 -0.3 Z m 0 0.3 " class=""></path>
    <path d="M 16 -8 L 16 -4" class="line"></path>
    <path d="M 8 -10 m -0.3 0 l 0.3 0.3 0.3 -0.3 -0.3 -0.3 Z m 0 0.3 " class=""></path>
    <path d="M 8 -10 L 8 -12" class="line"></path>
    <path d="M 8 -12 m -0.21 -0.21 v 0.42 h 0.42 v -0.42 Z m -0.21 0.21 " class=""></path>
    <path d="M 8 -14 m -0.3 0 l 0.3 0.3 0.3 -0.3 -0.3 -0.3 Z m 0 0.3 " class=""></path>
    <path d="M 8 -14 L 8 -12" class="line"></path>
    <path d="M 10 -14 m -0.3 0 l 0.3 0.3 0.3 -0.3 -0.3 -0.3 Z m 0 0.3 " class=""></path>
    <path d="M 10 -14 L 10 -14" class="line"></path>
    <path d="M 10 -14 m -0.21 -0.21 v 0.42 h 0.42 v -0.42 Z m -0.21 0.21 " class=""></path>
    <path d="M 12 -14 m -0.3 0 l 0.3 0.3 0.3 -0.3 -0.3 -0.3 Z m 0 0.3 " class=""></path>
    <path d="M 12 -14 L 10 -14" class="line"></path>
    <path d="M 14 -12 m -0.3 0 l 0.3 0.3 0.3 -0.3 -0.3 -0.3 Z m 0 0.3 " class=""></path>
    <path d="M 14 -12 L 14 -12" class="line"></path>
    <path d="M 14 -12 m -0.21 -0.21 v 0.42 h 0.42 v -0.42 Z m -0.21 0.21 " class=""></path>
    <path d="M 16 -16 m -0.21 -0.21 v 0.42 h 0.42 v -0.42 Z m -0.21 0.21 " class=""></path>
    <path d="M 10 -16 m -0.21 -0.21 v 0.42 h 0.42 v -0.42 Z m -0.21 0.21 " class=""></path>
    <path d="M 6 -16 m -0.3 0 l 0.3 0.3 0.3 -0.3 -0.3 -0.3 Z m 0 0.3 " class=""></path>
    <path d="M 6 -16 L 10 -16" class="line"></path>
    <path d="M 4 -14 m -0.3 0 l 0.3 0.3 0.3 -0.3 -0.3 -0.3 Z m 0 0.3 " class=""></path>
    <path d="M 4 -14 L 4 -12" class="line"></path>
    <path d="M 4 -12 m -0.21 -0.21 v 0.42 h 0.42 v -0.42 Z m -0.21 0.21 " class=""></path>
    <path d="M 4 -8 m -0.3 0 l 0.3 0.3 0.3 -0.3 -0.3 -0.3 Z m 0 0.3 " class=""></path>
    <path d="M 4 -8 L 4 -12" class="line"></path>
    <path d="M 12 -6 m -0.3 0 l 0.3 0.3 0.3 -0.3 -0.3 -0.3 Z m 0 0.3 " class=""></path>
    <path d="M 12 -6 L 12 -4" class="line"></path>
    <path d="M 12 -4 m -0.21 -0.21 v 0.42 h 0.42 v -0.42 Z m -0.21 0.21 " class=""></path>
    <path d="M 12 -2 m -0.3 0 l 0.3 0.3 0.3 -0.3 -0.3 -0.3 Z m 0 0.3 " class=""></path>
    <path d="M 12 -2 L 12 -4" class="line"></path>
    <path d="M 6 -2 m -0.3 0 l 0.3 0.3 0.3 -0.3 -0.3 -0.3 Z m 0 0.3 " class=""></path>
    <path d="M 6 -2 L 2 -4" class="line"></path>
    <path d="M 2 -4 m -0.21 -0.21 v 0.42 h 0.42 v -0.42 Z m -0.21 0.21 " class=""></path>
  </g>
</svg>
